// Jest Snapshot v1, https://goo.gl/fbAQLP

exports[`UserTable matches the sample snapshot when using the sample data 1`] = `
<table
  aria-label="saved users"
  class="MuiTable-root"
>
  <thead
    class="MuiTableHead-root"
  >
    <tr
      class="MuiTableRow-root MuiTableRow-head"
    >
      <th
        class="MuiTableCell-root MuiTableCell-head"
        scope="col"
      >
        Username
      </th>
      <th
        class="MuiTableCell-root MuiTableCell-head"
        scope="col"
      >
        Name
      </th>
      <th
        class="MuiTableCell-root MuiTableCell-head"
        scope="col"
      >
        GitHub ID
      </th>
      <th
        class="MuiTableCell-root MuiTableCell-head"
        scope="col"
      >
        Public Repos
      </th>
      <th
        class="MuiTableCell-root MuiTableCell-head"
        scope="col"
      >
        Public Gists
      </th>
      <th
        class="MuiTableCell-root MuiTableCell-head"
        scope="col"
      >
        Followers
      </th>
      <th
        class="MuiTableCell-root MuiTableCell-head"
        scope="col"
      >
        Following
      </th>
      <th
        class="MuiTableCell-root MuiTableCell-head"
        scope="col"
      >
        Created At
      </th>
    </tr>
  </thead>
  <tbody
    class="MuiTableBody-root"
  >
    <tr
      class="MuiTableRow-root"
    >
      <td
        class="MuiTableCell-root MuiTableCell-body"
      >
        <a
          class="MuiTypography-root MuiLink-root MuiLink-underlineHover MuiTypography-colorPrimary"
          href="https://github.com/devon-wolf"
        >
          devon-wolf
        </a>
      </td>
      <td
        class="MuiTableCell-root MuiTableCell-body"
      >
        Devon Wolfkiel
      </td>
      <td
        class="MuiTableCell-root MuiTableCell-body"
      >
        33987744
      </td>
      <td
        class="MuiTableCell-root MuiTableCell-body"
      >
        1
      </td>
      <td
        class="MuiTableCell-root MuiTableCell-body"
      >
        1
      </td>
      <td
        class="MuiTableCell-root MuiTableCell-body"
      >
        1
      </td>
      <td
        class="MuiTableCell-root MuiTableCell-body"
      >
        1
      </td>
      <td
        class="MuiTableCell-root MuiTableCell-body"
      >
        11/25/2017
      </td>
    </tr>
    <tr
      class="MuiTableRow-root"
    >
      <td
        class="MuiTableCell-root MuiTableCell-body"
      >
        <a
          class="MuiTypography-root MuiLink-root MuiLink-underlineHover MuiTypography-colorPrimary"
          href="https://github.com/devon-wolf"
        >
          devon-wolf
        </a>
      </td>
      <td
        class="MuiTableCell-root MuiTableCell-body"
      >
        Devon Wolfkiel
      </td>
      <td
        class="MuiTableCell-root MuiTableCell-body"
      >
        33987744
      </td>
      <td
        class="MuiTableCell-root MuiTableCell-body"
      >
        1
      </td>
      <td
        class="MuiTableCell-root MuiTableCell-body"
      >
        1
      </td>
      <td
        class="MuiTableCell-root MuiTableCell-body"
      >
        1
      </td>
      <td
        class="MuiTableCell-root MuiTableCell-body"
      >
        1
      </td>
      <td
        class="MuiTableCell-root MuiTableCell-body"
      >
        11/25/2017
      </td>
    </tr>
  </tbody>
</table>
`;
